Get started • fgeo.habitat
…
Iterate over multiple soil variables

soil <- soil_fake
soil
#> # A tibble: 30 x 5
#>       gx    gy    mg     c     p
#>    <int> <int> <dbl> <dbl> <dbl>
#>  1    40   193  0.67  1.75  6.5 
#>  2    56    30  0.5   2.25  5.90
#>  3    61   102  0.65  2.05  6.40
#>  4    67   110  0.5   2.35  6.40
#>  5   113    16  0.56  1.45  6.20
#>  6   173   134  0.74  1.55  7   
#>  7   239   252  0.47  0.85  5.90
#>  8   257   442  0.52  2.25  6.20
#>  9   283   288  0.45  0.45  6.7 
#> 10   294   181  0.7   2.45  7.1 
#> # ... with 20 more rows

Scale soil data to make their values fall within the same range. In the following section, this will ease visual comparison.

soil_vars <- c("mg", "c", "p")
soil_fake[soil_vars] <- map_df(soil_fake[soil_vars], scale)
soil_fake
#> # A tibble: 30 x 5
#>       gx    gy     mg      c       p
#>    <int> <int>  <dbl>  <dbl>   <dbl>
#>  1    40   193  0.720  0.177  0.613 
#>  2    56    30 -0.876  1.03  -0.479 
#>  3    61   102  0.532  0.691  0.431 
#>  4    67   110 -0.876  1.21   0.431 
#>  5   113    16 -0.313 -0.337  0.0668
#>  6   173   134  1.38  -0.166  1.52  
#>  7   239   252 -1.16  -1.37  -0.479 
#>  8   257   442 -0.689  1.03   0.0668
#>  9   283   288 -1.35  -2.05   0.977 
#> 10   294   181  1.00   1.38   1.71  
#> # ... with 20 more rows
…
Visualize multiple soil variables

Re structure as a long-format dataframe to allow faceting with gglot2.

dfs2 <- unnest(enframe(dfs, name = "soil_var"))
dfs2
#> # A tibble: 3,750 x 4
#>    soil_var     x     y       z
#>    <chr>    <dbl> <dbl>   <dbl>
#>  1 mg          10    10 -0.319 
#>  2 mg          30    10 -0.226 
#>  3 mg          50    10 -0.137 
#>  4 mg          70    10 -0.0535
#>  5 mg          90    10  0.0256
#>  6 mg         110    10  0.100 
#>  7 mg         130    10  0.170 
#>  8 mg         150    10  0.235 
#>  9 mg         170    10  0.296 
#> 10 mg         190    10  0.352 
#> # ... with 3,740 more rows
…
