Habitat-species associations • fgeo.habitat
…
Producing analytic summaries.

tt_df %>% 
  group_by(metric) %>% 
  summarise(mean = mean(value), max = max(value), min = min(value))
#> # A tibble: 24 x 4
#>    metric     mean   max   min
#>    <chr>     <dbl> <dbl> <dbl>
#>  1 Eq.Hab.1   2.33     3     2
#>  2 Eq.Hab.2   3.67     5     1
#>  3 Eq.Hab.3  12       20     2
#>  4 Eq.Hab.4   3.33     7     1
#>  5 Gr.Hab.1 930     1511   558
#>  6 Gr.Hab.2 837     1591   264
#>  7 Gr.Hab.3 722     1132   492
#>  8 Gr.Hab.4 600.     996    76
#>  9 Ls.Hab.1 668.    1040    86
#> 10 Ls.Hab.2 759.    1331     8
#> # ... with 14 more rows
…
