Habitat-species associations • fgeo.habitat
…
Producing analytic summaries.

result_top_sp %>% 
  group_by(metric) %>% 
  summarise(mean = mean(value), max = max(value), min = min(value))
#> # A tibble: 24 x 4
#>    metric     mean   max   min
#>    <chr>     <dbl> <dbl> <dbl>
#>  1 Eq.Hab.1   5.00    9.    2.
#>  2 Eq.Hab.2   3.20    5.    1.
#>  3 Eq.Hab.3   2.80    5.    1.
#>  4 Eq.Hab.4   3.20    4.    2.
#>  5 Gr.Hab.1 758.   1511.   64.
#>  6 Gr.Hab.2 685.   1577.  219.
#>  7 Gr.Hab.3 730.   1346.  333.
#>  8 Gr.Hab.4 792.   1576.  165.
#>  9 Ls.Hab.1 837.   1532.   80.
#> 10 Ls.Hab.2 912.   1379.   22.
#> # ... with 14 more rows
…
